COMPSCIX 415.2 Homework 5/Midterm
…
From 2000 to 2015.

2. How many cities are represented?

count(txhousing, city)

## # A tibble: 46 x 2
##    city                      n
##    <chr>                 <int>
##  1 Abilene                 187
##  2 Amarillo                187
##  3 Arlington               187
##  4 Austin                  187
##  5 Bay Area                187
##  6 Beaumont                187
##  7 Brazoria County         187
##  8 Brownsville             187
##  9 Bryan-College Station   187
## 10 Collin County           187
## #  with 36 more rows

There are 46 cities.

3. Which city, month and year had the highest number of sales?

arrange(txhousing, desc(sales))

## # A tibble: 8,602 x 9
##    city     year month sales     volume median listings inventory  date
##    <chr>   <int> <int> <dbl>      <dbl>  <dbl>    <dbl>     <dbl> <dbl>
##  1 Houston  2015     7  8945 2568156780 217600    23875       3.4 2016.
##  2 Houston  2006     6  8628 1795898108 155200    36281       5.6 2006.
##  3 Houston  2013     7  8468 2168720825 187800    21497       3.3 2014.
##  4 Houston  2015     6  8449 2490238594 222400    22311       3.2 2015.
##  5 Houston  2013     5  8439 2121508529 186100    20526       3.3 2013.
##  6 Houston  2014     6  8391 2342443127 211200    19725       2.9 2014.
##  7 Houston  2014     7  8391 2278932511 199700    20214       3   2014.
##  8 Houston  2014     8  8167 2195184825 202400    20007       2.9 2015.
##  9 Houston  2013     8  8155 2083377894 186700    21366       3.3 2014.
## 10 Houston  2006     5  8040 1602621368 151200    35398       5.5 2006.
## #  with 8,592 more rows
…
5. What proportion of sales is missing for each city?

txhousing %>%
  group_by(city) %>%
  summarise(count = n(), missing = sum(is.na(sales)), missing_prop = (missing / count) * 100) 

## # A tibble: 46 x 4
##    city                  count missing missing_prop
##    <chr>                 <int>   <int>        <dbl>
##  1 Abilene                 187       0         0   
##  2 Amarillo                187       0         0   
##  3 Arlington               187       0         0   
##  4 Austin                  187       0         0   
##  5 Bay Area                187       0         0   
##  6 Beaumont                187       0         0   
##  7 Brazoria County         187      14         7.49
##  8 Brownsville             187       2         1.07
##  9 Bryan-College Station   187       0         0   
## 10 Collin County           187       0         0   
## #  with 36 more rows
…
